<svg width="134" height="32" viewBox="0 0 134 32" fill="none" xmlns="http://www.w3.org/2000/svg">
<path fill-rule="evenodd" clip-rule="evenodd" d="M35.4648 23.089V10.4858H45.7346V23.089H43.226V12.8948H37.9727V23.089H35.4648ZM53.0724 15.8265H51.6487C50.4626 15.8265 49.8692 16.2483 49.8692 17.0735C49.8692 17.8822 50.446 18.2862 51.5984 18.2862C52.1072 18.2862 52.598 18.2532 53.0724 18.1689V15.8265ZM55.3944 13.9059V23.0883H53.0724V19.9023C52.6225 19.984 52.1462 20.0914 51.5707 20.1079L49.6489 23.0883H47.0391L49.3347 19.7836C48.1307 19.2781 47.4969 18.4048 47.4969 17.0398C47.4969 15.1693 48.8689 13.9059 51.5812 13.9059H55.3944ZM71.0874 14.681C71.7985 15.3717 72.1544 16.3155 72.1544 17.5454V23.0883H69.7656V17.983C69.7656 16.5851 69.0201 15.8436 67.9179 15.8436C66.7139 15.8436 65.8844 16.703 65.8844 18.0509V23.089H63.4949V18.0008C63.4949 16.6358 62.7659 15.8436 61.6307 15.8436C60.4617 15.8436 59.6143 16.703 59.6143 18.068V23.089H57.2248V13.9059H59.5634V15.2201C60.0886 14.2598 61.1729 13.637 62.3762 13.6534C63.5286 13.6534 64.5964 14.2097 65.0879 15.2708C65.766 14.2598 67.0196 13.6534 68.3923 13.6534C69.4944 13.6534 70.3921 13.9896 71.0874 14.6816V14.681ZM90.8647 20.3755C91.339 19.87 91.5765 19.2471 91.5765 18.5063C91.5765 17.7642 91.339 17.1413 90.8647 16.6352C90.3904 16.1303 89.7798 15.8772 89.0177 15.8772C88.2722 15.8772 87.6616 16.1303 87.1879 16.6352C86.7129 17.1413 86.4754 17.7642 86.4754 18.5063C86.4754 19.2471 86.7136 19.8706 87.1879 20.3762C87.6622 20.8817 88.2722 21.1341 89.0177 21.1341C89.7798 21.1341 90.3904 20.8817 90.8647 20.3762V20.3755ZM92.6952 15.0685C93.5592 15.9952 93.9832 17.1413 93.9832 18.4892C93.9832 19.837 93.5426 20.9825 92.678 21.9099C91.814 22.8359 90.7298 23.3071 89.4239 23.3071C88.2894 23.3071 87.2415 22.8141 86.5264 21.9415V26.8629H84.1369V13.9059H86.5092V15.1107C87.2679 14.1695 88.2722 13.6706 89.4411 13.6706C90.7463 13.6706 91.8306 14.1418 92.6952 15.0685ZM99.7962 21.1176C100.525 21.1176 101.118 20.8645 101.609 20.359C102.101 19.837 102.355 19.2135 102.355 18.4892C102.355 17.7642 102.101 17.1413 101.609 16.6358C101.118 16.1303 100.525 15.8779 99.7962 15.8779C99.0671 15.8779 98.4572 16.1303 97.9657 16.6358C97.4748 17.1413 97.2373 17.7648 97.2373 18.4892C97.2373 19.2135 97.4748 19.837 97.9657 20.359C98.4572 20.8645 99.0671 21.117 99.7962 21.117V21.1176ZM96.2371 15.0685C97.1698 14.1247 98.356 13.6534 99.7962 13.6534C101.236 13.6534 102.422 14.1247 103.355 15.0685C104.287 15.9952 104.744 17.1413 104.744 18.4892C104.744 19.8535 104.287 20.9997 103.355 21.9263C102.422 22.8524 101.236 23.3249 99.7962 23.3249C98.356 23.3249 97.1698 22.8524 96.2371 21.9263C95.305 20.9997 94.8478 19.8542 94.8478 18.4892C94.8478 17.1413 95.305 15.9952 96.2371 15.0685ZM111.472 13.9059H113.862V23.089H111.472V19.9978C110.773 20.3953 110.016 20.595 109.422 20.595C108.321 20.595 107.507 20.3926 106.778 19.9042C106.05 19.3822 105.643 18.4048 105.643 16.9891V13.9059H108.016V16.821C108.016 17.8993 108.575 18.4384 109.693 18.4384C110.321 18.4384 110.855 18.3514 111.473 18.1056V13.9059H111.472ZM121.76 23.089L118.082 18.8484V23.089H115.693V13.892H118.082V17.5355L121.438 13.9059H124.454L120.336 18.159L124.692 23.089H121.76Z" fill="#EB2316"/>
<path fill-rule="evenodd" clip-rule="evenodd" d="M130.987 16.6197C130.496 16.097 129.885 15.8446 129.139 15.8446C128.377 15.8446 127.767 16.097 127.275 16.6197C126.801 17.1424 126.563 17.7652 126.563 18.4895C126.563 19.231 126.801 19.8545 127.292 20.3772C127.784 20.8992 128.394 21.1516 129.139 21.1516C129.885 21.1516 130.496 20.8992 130.987 20.3772C131.478 19.8545 131.733 19.231 131.733 18.4895C131.733 17.7652 131.478 17.1424 130.987 16.6197ZM131.699 13.9069H133.969V23.0893H131.699V21.8766C130.905 22.8336 129.919 23.3088 128.75 23.3088C127.428 23.3088 126.327 22.854 125.462 21.9274C124.598 21.0007 124.175 19.838 124.175 18.4566C124.175 17.0745 124.615 15.929 125.479 15.0359C126.344 14.1264 127.445 13.6716 128.75 13.6716C129.902 13.6716 130.919 14.1923 131.699 15.111V13.9069ZM78.764 11.5987C78.764 10.8072 79.3911 10.2173 80.2041 10.2173C81.0006 10.2173 81.6112 10.8408 81.6112 11.5987C81.6112 12.4246 81.0006 13.0309 80.2041 13.0309C79.3911 13.0309 78.764 12.4246 78.764 11.5987ZM75.8155 17.5635H80.5098C80.2895 16.3666 79.4248 15.6429 78.205 15.6429C77.001 15.6429 76.1032 16.3666 75.8155 17.5629V17.5635ZM76.5101 10.2173C77.3066 10.2173 77.9337 10.8408 77.9337 11.5987C77.9337 12.4246 77.3238 13.0309 76.5101 13.0309C75.6964 13.0309 75.0865 12.4246 75.0865 11.5987C75.0865 10.8408 75.7136 10.2173 76.5101 10.2173ZM82.7464 19.3325H75.8155C76.1542 20.6296 77.0526 21.2867 78.5099 21.2867C79.5095 21.2867 80.6229 20.9143 81.467 20.2486L82.4289 21.7534C81.2626 22.8389 79.9336 23.2917 78.408 23.2917C76.7807 23.2917 75.5436 22.8204 74.6796 21.8937C73.8156 20.9671 73.3916 19.8209 73.3916 18.4902C73.3916 17.0916 73.8322 15.9461 74.7306 15.0366C75.6289 14.1264 76.7813 13.6709 78.205 13.6709C79.5439 13.6709 80.6619 14.0921 81.5259 14.9179C82.3905 15.7438 82.8311 16.8556 82.8311 18.2872C82.8311 18.6075 82.798 18.9621 82.7464 19.3325Z" fill="#EB2316"/>
<path fill-rule="evenodd" clip-rule="evenodd" d="M16.0837 0.682129C7.49498 0.682129 0.507812 7.64345 0.507812 16.2004C0.507812 24.7574 7.49498 31.7187 16.0837 31.7187C24.6718 31.7187 31.6597 24.7574 31.6597 16.2004C31.6597 7.64345 24.6718 0.682129 16.0837 0.682129Z" fill="white"/>
<path fill-rule="evenodd" clip-rule="evenodd" d="M23.9442 5.06836C22.7555 8.10611 20.0491 8.73818 16.1288 8.73818C15.7081 8.73818 15.2913 8.73159 14.8891 8.72566C14.5001 8.72038 14.1323 8.71445 13.7718 8.71445C13.4516 8.71445 13.1287 8.7184 12.8105 8.73225C13.3596 7.38902 14.2362 6.47618 15.4838 5.92254C17.223 5.1514 19.4841 5.1435 21.4793 5.13756C22.3486 5.13427 23.1808 5.13097 23.9442 5.06836Z" fill="#008F32"/>
<path fill-rule="evenodd" clip-rule="evenodd" d="M25.1654 6.04487C23.4071 9.86101 19.4881 10.2433 16.1288 10.2433C15.3912 10.2433 14.6847 10.2255 14.0304 10.2215L13.1843 13.5183C17.5174 9.99876 23.2476 13.488 22.6351 18.7989C22.2223 22.3758 19.6628 24.7149 16.9551 25.3872C14.0053 26.1201 10.7373 25.0234 9.27198 22.0285C9.11652 21.7121 8.84595 21.0781 8.74275 20.7393L11.8533 19.9431C11.9082 20.1217 12.0015 20.2944 12.0994 20.4519C14.1819 23.7981 18.4019 22.1247 18.8782 18.6533C19.3631 15.1219 14.3896 13.2408 12.1232 17.3681L9.3646 16.1968L9.31696 16.1758L10.6473 10.8549C10.7293 10.4766 11.0059 9.42008 11.0535 9.24674C12.5572 3.73805 17.4215 3.65105 21.3232 3.63655C19.7097 2.96758 17.9408 2.59717 16.0838 2.59717C8.5423 2.59717 2.42969 8.68717 2.42969 16.2008C2.42969 23.7144 8.5423 29.8044 16.0838 29.8044C23.6254 29.8044 29.738 23.7144 29.738 16.2008C29.738 12.1619 27.9704 8.53624 25.1654 6.04487Z" fill="#EB2316"/>
</svg>
