<svg width="200" height="53" viewBox="0 0 200 53" fill="none" xmlns="http://www.w3.org/2000/svg">
<path d="M176.496 15.4593C176.496 14.5224 175.738 13.7637 174.799 13.7637H172.287C171.35 13.7637 170.592 14.5257 170.592 15.463L170.593 41.6826C170.593 42.6195 171.351 43.379 172.288 43.379H174.799C175.738 43.379 176.496 42.6158 176.496 41.6797V15.4593Z" fill="#3277B6"/>
<path d="M179.698 16.1549V17.401C179.698 17.9173 180.12 18.3335 180.637 18.3335H197.968C198.759 18.3335 199.4 17.6964 199.4 16.9071V14.7965C199.4 14.0077 198.751 13.2937 197.966 13.371C197.966 13.371 181.213 15.0109 180.674 15.0723C180.049 15.1423 179.698 15.6382 179.698 16.1549Z" fill="#3277B6"/>
<path d="M165.667 43.3798C161.356 43.3798 158.643 40.1166 158.643 36.4849L158.639 25.9936H157.405C156.747 25.9936 156.214 25.4643 156.214 24.8073V23.0519C156.214 22.3952 156.75 21.8672 157.408 21.8672L158.639 21.8692L158.637 15.4194C158.637 14.5056 159.375 13.7656 160.29 13.7656H162.74C163.654 13.7656 164.393 14.5109 164.393 15.4243V21.8696L168.214 21.8684C168.872 21.8684 169.407 22.3969 169.407 23.0531V24.8093C169.407 25.466 168.874 25.9948 168.217 25.9948L164.394 25.9944L164.397 35.6981C164.397 37.6036 165.555 38.9043 167.622 38.9043L167.969 38.9022C168.684 38.9022 169.264 39.4754 169.264 40.187V42.0938C169.264 42.807 168.685 43.3806 167.972 43.3806H165.667V43.3798Z" fill="#3277B6"/>
<path d="M125.292 25.6003C127.866 25.6003 130.088 27.4277 130.312 29.8996H120.313C120.537 27.4281 122.72 25.6007 125.292 25.6003V21.1117C118.324 21.1117 114.415 26.5547 114.415 32.2917C114.415 38.4031 118.601 43.785 125.339 43.785C129.95 43.785 134.496 41.3603 135.354 37.3787C135.471 36.8413 135.108 36.1363 134.35 36.1334H131.054C130.457 36.1334 129.968 36.4202 129.673 36.8515C128.731 38.2306 127.349 38.9645 125.306 38.9645C122.422 38.9645 120.42 36.6948 120.27 34.1794L134.281 34.1786C135.572 34.1786 136.149 33.4797 136.149 32.2901C136.149 26.6971 132.832 21.1113 125.292 21.1113V25.6003H125.292Z" fill="#3277B6"/>
<path d="M189.144 25.6003C191.717 25.6003 193.937 27.4277 194.162 29.8996H184.162C184.388 27.4281 186.572 25.6007 189.144 25.6003V21.1117C182.174 21.1117 178.265 26.5547 178.265 32.2917C178.265 38.4031 182.452 43.785 189.189 43.785C193.801 43.785 198.347 41.3603 199.205 37.3787C199.322 36.8413 198.959 36.1363 198.201 36.1334H194.905C194.307 36.1334 193.819 36.4202 193.523 36.8515C192.582 38.2306 191.199 38.9645 189.157 38.9645C186.272 38.9645 184.271 36.6948 184.121 34.1794L198.132 34.1786C199.422 34.1786 200 33.4797 200 32.2901C200 26.6971 196.682 21.1113 189.144 21.1113V25.6003Z" fill="#3277B6"/>
<path d="M153.926 14.0574H108.538C107.505 14.0574 106.673 14.8918 106.673 15.9223L106.829 33.7125C106.829 33.7125 97.0479 16.0818 96.5381 15.1819C96.0589 14.3349 95.0296 13.5566 93.6049 13.5566H89.8723C88.8401 13.5566 88.0045 14.3914 88.0045 15.4223L88.0057 41.5117C88.0057 42.5418 88.8414 43.3774 89.8735 43.3774H92.266C93.2998 43.3774 94.1325 42.5378 94.1325 41.5081L93.982 23.218C93.982 23.218 103.857 41.0252 104.279 41.727C104.848 42.674 105.814 43.3774 107.211 43.3774L110.639 43.3779C111.671 43.3779 112.505 42.5414 112.505 41.5117L112.504 18.478L153.928 18.4792C154.633 18.4792 155.205 17.9121 155.205 17.2087V15.3263C155.205 14.6237 154.63 14.0574 153.926 14.0574Z" fill="#3277B6"/>
<path d="M146.58 25.3855C148.552 25.3855 150.03 26.0998 150.56 27.3342C150.815 27.9269 151.31 28.0416 151.991 28.0416H154.704C155.153 28.0416 155.668 27.6568 155.668 27.0717C155.668 23.9225 151.906 21.1113 146.577 21.1113C141.066 21.1113 137.446 23.7325 137.446 27.9053C137.446 31.0997 139.974 33.0004 143.082 33.8108C144.5 34.1806 146.918 34.7783 148.097 35.0858C149.367 35.4182 150.502 35.8059 150.502 36.8909C150.502 38.6049 148.693 39.1879 146.716 39.1879C144.844 39.1879 142.978 38.3531 142.444 37.0199C142.135 36.2489 141.592 36.1363 140.77 36.1363H138.01C137.529 36.1363 136.975 36.5492 136.975 37.1761V37.5305C136.975 40.5788 141.071 43.7695 146.722 43.7695C150.729 43.7695 156.312 42.1064 156.312 36.7441C156.312 33.6383 154.229 31.487 150.84 30.6282C149.516 30.2926 146.33 29.4834 145.638 29.3052C144.403 28.9871 143.25 28.5851 143.25 27.5286C143.25 25.9286 144.732 25.3855 146.58 25.3855Z" fill="#3277B6"/>
<path d="M46.1054 8.02897C46.6069 8.02897 47.0135 7.62242 47.0135 7.12093C47.0135 6.61943 46.6069 6.21289 46.1054 6.21289C45.6039 6.21289 45.1974 6.61943 45.1974 7.12093C45.1974 7.62242 45.6039 8.02897 46.1054 8.02897Z" fill="#3277B6"/>
<path d="M33.8876 6.42029C34.3116 6.42029 34.6553 6.07787 34.6553 5.65546C34.6553 5.23305 34.3116 4.89062 33.8876 4.89062C33.4636 4.89062 33.1199 5.23305 33.1199 5.65546C33.1199 6.07787 33.4636 6.42029 33.8876 6.42029Z" fill="#3277B6"/>
<path d="M24.7299 25.0988L24.3581 24.6997C25.3971 23.7367 26.4976 22.2002 26.6746 21.2999C26.8401 20.4606 28.0492 20.5944 27.8194 21.5065C27.5252 22.6717 26.0948 24.0805 24.7299 25.0988Z" fill="#3277B6"/>
<path d="M16.9787 6.73802C15.0662 7.56388 14.7851 9.52072 16.1276 10.6956C17.7447 12.1102 20.4119 10.8787 20.1544 8.71357C22.3244 8.82382 23.7227 6.58668 23.3785 5.01796C24.3439 4.19129 24.4399 2.43013 23.2808 1.73731C22.0412 0.995661 20.8712 1.28044 20.1275 2.71003C18.1418 2.56601 16.2379 4.12579 16.9787 6.73802L16.058 6.33689C14.8449 3.80399 16.9689 1.21698 19.5751 1.81298C20.1003 0.555882 22.0404 -0.749626 24.1364 0.516826C25.8105 1.52698 26.164 4.13677 24.3842 5.40282C25.2226 7.83727 23.5514 9.82828 21.0051 9.60086C20.7056 12.7326 17.746 13.1358 15.8335 11.6496C14.7542 10.8104 14.3111 9.64683 14.1049 8.76849C13.8864 7.8389 13.8836 7.00653 12.9658 6.04967C12.2733 5.32755 11.0354 5.35196 11.0354 5.35196C11.0354 3.07699 8.90155 0.994034 6.25393 2.00296C5.3166 1.19582 4.15633 1.11567 3.32477 2.11321C2.84268 2.69254 2.5754 4.21488 4.0656 4.91178C3.9879 6.98578 5.5729 8.30959 7.88896 8.12571C7.9809 9.22739 9.20505 10.2518 10.2901 10.3986L10.2803 10.9523C9.12124 10.8421 8.49595 11.2453 7.72298 12.2001C5.00131 12.0711 3.09451 13.2802 3.17384 15.2301C1.26013 15.5922 0.902118 17.5926 1.98713 18.6572C3.07213 19.7215 4.66282 19.3041 5.20472 18.0328C7.13674 18.4005 8.84134 17.0193 8.91945 15.4274C10.7217 15.4274 11.5113 14.7143 11.8067 13.0597L12.4877 13.1146C12.6883 14.8973 11.8624 16.5885 9.71033 16.3863C9.65459 18.5132 7.58628 19.7032 5.65589 18.9693C4.75477 20.6572 2.68931 21.3329 0.957853 19.6845C-0.716239 18.0926 -0.104778 15.3676 2.08314 14.7065C2.13318 12.622 3.6779 10.6403 6.67662 11.4035C6.67662 11.4035 7.06229 10.4723 7.99962 10.417C7.37432 10.1607 6.90078 9.81648 6.77263 9.17369C4.51067 9.65578 2.58841 7.5773 3.10386 5.48499C1.062 4.41179 1.02986 2.40043 2.04286 1.20477C3.09695 -0.0409336 4.85485 -0.315948 6.42723 1.02577C9.08869 -0.446946 12.1 1.35611 11.9161 4.38371C13.7786 4.26045 14.9092 5.8845 14.7017 7.5773C15.0097 6.832 15.3677 6.4862 16.0572 6.33648L16.9787 6.73802Z" fill="#3277B6"/>
<path d="M21.5531 3.10352L22.0043 3.4245C21.1296 5.26295 19.5849 7.21694 18.2602 8.29096L17.7562 7.91221C18.6935 6.38823 20.7073 3.87445 21.5531 3.10352Z" fill="#3277B6"/>
<path d="M8.52443 13.207L8.82833 13.6566C7.72543 14.7847 5.68478 16.29 4.59978 16.8127L4.17627 16.3546C5.22507 15.2261 7.2295 13.7481 8.52443 13.207Z" fill="#3277B6"/>
<path d="M11.1623 7.74158L10.6302 8.39983C9.18715 7.45477 6.3361 4.91292 5.6925 3.99512L6.14245 3.53906C7.5216 4.23636 10.2152 6.63176 11.1623 7.74158Z" fill="#3277B6"/>
<path d="M8.48415 31.8573C8.64973 32.6823 8.5106 33.5952 9.2555 34.4862C9.51749 34.799 10.9646 36.7001 12.0134 37.6818C10.5887 38.2412 7.73762 39.3978 5.68722 39.6541C5.27632 39.7054 4.81417 39.9938 4.42809 40.2139C4.17057 40.6529 3.90572 41.4336 3.79425 42.3172C3.71492 42.9482 3.72469 43.6508 3.72469 44.368C3.72469 44.9982 4.06032 46.9859 4.76779 48.3179C5.47689 49.6507 6.15669 50.2475 6.99354 50.6376C7.1579 50.5644 7.52282 50.5095 8.09238 50.4977C9.64117 50.4635 10.8543 51.3166 11.3877 52.0505C11.5923 52.3312 12.0032 52.3878 12.5422 52.3878C13.7928 52.3878 15.1663 51.9777 16.4714 51.4814C16.7525 51.2523 17.5385 50.7291 18.3111 50.1234C19.0828 49.5176 23.3866 45.8749 25.2889 44.9575C26.2918 45.4986 27.9366 46.1963 29.6371 46.1963C29.736 46.1963 30.0635 46.2012 30.4101 46.1227C30.941 46.0035 31.6204 45.7667 32.4784 45.6003C34.0129 45.3009 35.8127 45.0385 36.3363 45.0466C37.7472 45.0698 41.8838 45.1756 42.8643 45.1756C43.8935 45.1756 45.3602 45.0865 45.9199 45.0315C46.7849 44.7468 48.7153 44.2146 50.5635 43.3615C52.4076 42.5454 56.2908 39.8559 56.9258 39.2416C57.2322 38.9658 57.508 38.6651 57.7098 38.3946C57.7863 38.2908 57.8127 38.2497 57.8127 38.1667C57.8127 38.0846 57.7932 35.4487 57.7932 35.4487C57.7932 35.4487 58.7195 34.4203 59.0747 34.0655C59.1093 34.0309 59.1121 33.985 59.1068 33.9512C58.9465 33.4227 58.7879 31.7824 58.8782 30.1209L57.9392 29.6836C57.903 31.7519 57.1467 33.5118 56.438 34.6074C55.041 34.8275 52.3738 35.6534 51.4141 36.7424L51.9422 36.8922C52.8433 36.3962 53.8083 36.048 54.9116 36.048C55.8864 36.048 56.3172 36.3043 56.3172 36.5773C56.3172 36.7693 56.1346 37.231 56.0625 37.3751C55.9787 37.5431 55.9234 37.7538 55.7586 37.9328C54.4438 39.3575 52.9524 40.5743 51.1375 41.5833C49.9117 42.2651 48.7572 42.7269 46.9492 43.2366C46.409 43.3892 45.6681 43.6081 45.1848 43.7736C44.505 43.7549 40.9465 43.6496 38.8684 43.6496C36.7903 43.6496 32.5061 43.9518 31.1456 44.2964C30.5268 44.4522 30.3739 44.6996 29.6566 44.6996C28.3141 44.6996 26.5538 44.0206 25.4728 43.4974C25.3166 43.5434 24.9269 43.7163 24.5355 43.9103C23.7678 44.2911 22.0616 46.6544 21.0689 45.9384C20.5632 46.9754 18.3753 47.957 17.6276 49.0323C17.7098 48.468 18.593 44.8208 18.6748 44.091C18.6902 43.9608 18.7028 43.857 18.6206 43.7191C17.8212 42.3888 15.5898 41.543 14.3307 41.2969C13.9617 41.2245 13.7794 41.1728 13.5312 41.1175L11.5451 40.519L9.70382 41.1175L11.8295 41.5243L9.13141 43.3062C9.60089 43.1272 12.506 42.3225 12.7208 42.2582C12.9588 42.1878 13.2766 42.1199 13.622 42.2403C14.0174 42.3782 15.1386 42.6345 15.8074 42.8664C16.1988 43.0019 16.8408 43.7195 17.0068 44.1052C17.0747 44.2635 17.0999 44.5983 17.1447 45.3436C17.1723 45.8114 17.0515 46.4611 16.9384 46.9684C16.6402 48.2923 16.0373 49.3248 15.8477 49.6926C15.5857 50.2023 15.2208 50.3683 14.8632 50.5351C14.2753 50.8101 13.5581 50.985 12.7587 50.994C12.2099 51.0001 11.8437 50.97 11.6082 50.6547C10.8726 49.6637 9.05249 48.6999 7.19573 49.0579C6.05499 48.37 4.92564 46.1491 4.92564 44.3794C4.92564 43.32 5.46306 41.6488 5.7515 40.8083C7.60703 40.5613 11.3185 39.15 13.1265 38.3311C13.5024 38.3132 14.5418 37.9454 15.5345 37.9454C17.962 37.9454 20.3704 40.0654 21.8325 41.497C22.0722 41.1024 22.5221 40.506 23.7629 40.506C25.4834 40.506 26.4667 42.0658 26.9594 43.6683L27.8548 43.0198C27.699 42.102 27.2185 41.0971 26.494 40.3742C25.902 39.7831 24.7711 39.292 23.8878 39.292C23.3545 39.292 22.8028 39.4112 22.4534 39.4112C21.226 39.4112 20.726 38.8653 19.8196 38.2412C18.8403 37.5663 17.0186 36.5879 15.7175 36.5879C14.8819 36.5879 14.5044 36.9145 13.8148 36.9182C12.7981 36.9223 12.4222 36.5024 11.9344 35.8975C11.7225 35.6334 10.6932 34.7226 10.4174 34.3556C10.26 34.1453 9.98005 33.2844 9.87835 32.8536L8.48415 31.8573Z" fill="#3277B6"/>
<path d="M9.87992 32.8544C10.1753 33.1688 10.4592 33.5171 10.8282 33.7966C11.1846 34.0667 11.6333 34.3023 12.0556 34.5398C12.6529 34.8767 13.3298 35.262 13.9999 35.4764C14.5873 35.6533 15.3521 35.7266 16.0682 35.7266C17.0889 35.7266 18.2939 35.5154 19.291 35.9808C19.9599 36.2916 20.0042 36.9971 20.5363 37.2037C21.3638 37.5255 23.6632 37.5988 24.9374 37.5988C27.4613 37.5988 30.1912 37.279 31.8054 36.8941L31.0186 36.03C29.9015 36.209 26.6269 36.5642 25.1229 36.5642C23.0058 36.5642 21.0058 36.2261 21.0058 35.3523C21.0058 34.7469 21.6588 33.873 22.9 33.873C24.2328 33.873 26.247 34.6782 26.6204 34.7884C26.9923 34.8987 27.144 34.8706 27.3779 34.7612L28.1595 34.36C27.1245 33.8779 23.5172 32.6412 22.2621 32.6412C21.6689 32.6412 21.3455 32.7266 20.9598 33.2217C20.4765 33.8409 19.1897 34.4056 17.1353 34.4056C16.0084 34.4056 14.3957 34.2034 14.0418 34.0586C13.4234 33.8043 12.2114 33.1025 11.4356 32.5448C10.4369 31.8259 9.56504 31.0277 8.96619 30.0948C8.77945 29.8032 8.70297 29.4891 8.70582 29.2002C8.70866 28.957 8.77538 28.7324 8.80061 28.5534C8.9788 28.8011 9.17245 28.9801 9.4202 29.212C10.5052 30.2669 12.1069 31.0582 13.7533 31.3735C14.224 31.4634 14.6406 31.533 15.1028 31.533C15.8062 31.533 16.4538 31.1571 16.8672 30.7897L16.2211 30.0391C16.012 30.1018 15.5804 30.1018 15.2948 30.1018C12.9047 30.1018 9.87097 28.542 9.17367 26.7361C9.1041 26.5583 9.02151 26.4611 9.08986 26.2959C9.15943 26.1311 9.24568 25.78 9.29734 25.4562C9.43648 25.6173 9.72614 25.8594 10.0939 26.0949C10.9812 26.6645 12.6748 27.4509 13.0076 27.6584C13.8615 27.413 14.5035 27.1254 15.0104 26.863C15.5063 26.6059 16.1874 26.374 16.9742 26.374C18.7207 26.374 20.7292 27.3679 22.6136 28.2938L23.9008 27.7898C22.2279 26.6149 18.5872 24.9729 16.5649 24.9729C15.3684 24.9729 14.2472 25.8447 13.4478 25.8447C12.4673 25.8447 9.65535 24.477 9.65535 23.3366C9.65535 22.4599 11.4743 21.9636 14.4006 21.6036C13.8965 22.3493 13.4144 23.1198 12.9661 23.9147L13.7098 24.3273C18.2935 17.7045 23.0599 13.4032 27.07 10.7832C28.5268 9.83203 28.8584 9.27549 29.3681 8.23564C30.609 5.70274 31.7818 3.75485 33.818 3.75485C34.7708 3.75485 35.5466 4.28698 36.08 4.94726L37.5563 5.38785L36.0617 6.39678L37.5881 7.00255C35.5963 7.56031 32.8762 9.49436 31.7733 12.3299C29.6505 12.4426 28.6257 14.1574 27.9333 15.5939C27.4654 16.5626 26.7201 16.9491 25.6351 17.683L16.9567 23.7215L18.1519 23.8867L26.1689 18.528C27.751 17.4637 28.502 16.6789 28.8808 15.9222C29.6261 14.4389 30.4255 13.3352 31.9979 13.3352C32.7708 13.3352 33.5983 13.6652 34.2598 14.2892L35.6666 14.7473L34.1317 15.6842L35.4189 16.4731C31.7404 17.6228 29.4605 20.2533 28.1375 25.2817L29.111 25.5018C29.6 23.8366 30.0817 22.3094 30.9438 20.9612C33.0735 20.9368 35.2321 20.8591 37.3493 20.8591C43.0001 20.8591 47.6908 21.0971 50.2229 21.842L49.3275 20.2903C46.6184 19.8306 42.6893 19.5934 37.3493 19.5934C35.5596 19.5934 33.746 19.6593 31.945 19.6781C33.1065 18.4511 34.781 17.4169 37.359 16.6195L35.5287 15.6155L37.5608 14.4914L34.7932 13.4638C34.3099 13.0305 33.707 12.631 32.949 12.4414C33.8363 9.72341 36.8546 8.13556 39.7487 7.04079L37.7223 6.21493L39.767 5.0986L36.6178 4.09537C35.796 3.132 35.0047 2.69141 33.7916 2.69141C30.871 2.69141 29.644 5.22228 28.4853 7.46593C27.8751 8.64694 27.4906 9.14409 26.4544 9.82105C24.208 11.2872 21.3455 13.5281 18.6129 16.3994C17.1853 15.3714 14.2671 12.3686 13.4763 10.7299C13.1642 11.1152 12.8567 11.954 12.8567 11.954C13.1532 12.2689 16.5909 15.7331 17.868 17.2013C17.772 17.3079 17.6755 17.4157 17.5795 17.5235C16.2175 17.7932 12.6809 18.1317 11.4763 17.9686L10.8006 19.1663C11.7005 19.078 15.2146 18.6651 16.6727 18.58C16.2297 19.1142 15.7964 19.6663 15.3745 20.2338C10.8551 20.7472 7.83521 21.6711 7.83521 23.3366C7.83521 23.6117 7.94668 23.9229 7.94668 24.217C7.94668 24.9147 7.68346 25.1718 7.18754 25.4839C6.8633 25.6873 6.84214 25.8281 6.98006 26.0209C7.11919 26.2153 7.8169 27.245 7.8169 27.4472C7.8169 27.7829 7.48412 28.1152 7.2152 28.4151C6.98006 28.6771 6.98982 28.7458 7.1733 29.0762L8.4841 31.8568L9.87992 32.8544Z" fill="#3277B6"/>
<path d="M65.8345 17.3813C65.5449 17.6844 65.2914 18.0074 65.0783 18.352L64.3496 17.3309C66.7816 14.0982 73.201 12.582 76.9674 12.3155V10.5812C76.4897 10.7281 75.9743 10.8941 75.4967 11.0068C74.8209 11.1683 74.2013 11.3196 73.6761 11.3062C73.1481 11.2928 72.7233 11.082 72.5256 10.8013C72.0199 10.0812 72.4894 8.99337 74.144 7.97549L72.8389 6.89252C71.8316 8.19558 70.8385 9.63453 69.8292 10.4946C68.9126 11.2753 67.9517 11.6646 67.1746 11.0861C66.758 10.7753 66.6006 10.6321 66.5591 9.82004C66.6161 8.6256 67.3418 6.80179 67.9838 5.62688L66.4395 5.44584C66.1637 7.24483 65.4253 8.77816 64.6344 10.0442C63.6483 11.6223 62.3765 12.7305 61.0686 13.6365L60.2106 12.7931C61.2663 12.1707 62.5881 11.1593 63.4977 9.76512C64.5534 8.14595 65.4086 6.14395 65.4102 4.32422L69.8784 4.7461C69.2503 5.54226 68.2141 7.35752 67.8211 8.66181C67.6164 9.34161 67.6274 9.88269 67.874 10.0678C68.3475 10.4217 69.1774 9.85666 69.9826 8.99459C71.1176 7.77777 72.2307 5.94217 72.7197 5.28677L75.9507 7.96166C74.5162 8.7208 73.1233 9.58978 73.3991 10.0767C73.6525 10.521 74.5732 10.388 75.5817 10.0788C76.4076 9.82533 77.2839 9.44454 77.9787 9.03975V13.3985C76.4202 13.3777 73.7823 13.6682 71.2417 14.4363C71.8462 15.2878 73.5817 15.6006 74.6822 15.7516L74.1306 19.2893C71.3499 18.1246 69.2051 17.4456 65.8345 17.3813L66.9488 16.4265C69.4333 16.4774 71.9239 17.1974 73.3348 17.9065L73.5366 16.5673C72.2665 16.3988 70.6648 15.6796 69.9862 14.8606C68.8805 15.2768 67.8329 15.7939 66.9484 16.4269L65.8345 17.3813Z" fill="#3277B6"/>
<path d="M52.5191 28.622L53.554 26.393C52.4703 25.1135 51.2502 23.4952 50.2225 21.8426L49.3271 20.291C47.2576 16.3671 48.011 14.4933 46.9065 12.7667C45.994 11.34 41.5596 12.2277 40.824 12.3811L42.1068 10.2619L39.5787 10.4633L41.7211 7.92224C41.955 7.59149 42.0665 7.28922 42.3142 6.40803C42.6901 5.06957 43.8451 2.7832 47.2198 2.7832C50.965 2.7832 52.1265 5.80837 53.7603 7.12201C55.6126 8.61181 58.043 10.7037 60.2101 12.794L61.0681 13.6373C62.1755 14.7667 63.3065 15.927 64.3496 17.3325L65.0782 18.3537C69.5883 24.9235 75.1887 37.4819 77.6679 43.2311C77.9075 43.7885 78.0788 44.3532 78.2265 44.7816C76.5438 43.856 74.6903 42.7067 72.7848 41.3915L71.6733 40.61C70.9854 40.1169 70.2929 39.6031 69.6038 39.073L68.4602 38.1767C67.7763 37.6299 67.0981 37.0689 66.4281 36.4929L68.6827 49.5984C68.8487 50.3693 69.5102 50.2412 70.0436 49.5618C70.5769 48.8828 70.7791 48.6993 70.5769 47.8006L68.4598 38.1767L69.6034 39.073L71.6314 47.2494C71.8275 47.9882 72.1399 48.2225 73.0044 48.2591C73.8681 48.2953 74.052 47.965 73.8681 47.3962L71.6729 40.6096L72.7843 41.3911L74.8608 47.4882C75.3945 49.0479 74.8608 49.2314 73.9235 49.2314C72.9845 49.2314 72.1391 49.0113 71.6253 49.3417C71.1098 49.6724 70.465 50.5744 69.6933 51.3632C69.0106 52.0601 68.0192 51.877 67.8186 50.5715L65.3268 35.5258C63.7028 34.0682 62.158 32.5389 60.7764 30.9767C60.1691 30.7192 59.4852 30.4043 58.8794 30.1224L57.9405 29.685C57.6077 29.5321 57.3611 29.4222 57.2623 29.3941C56.5727 30.2192 55.9112 31.1419 55.1395 31.8022C54.7286 32.1528 54.4487 32.353 53.8425 32.353C53.6545 32.353 53.4235 32.3493 53.2074 32.2289C52.9764 32.0991 52.7587 31.8396 52.5179 31.4718C52.3356 31.1923 52.0655 30.8355 51.8287 30.4397C51.3372 29.6138 50.8047 28.5797 50.3259 27.742C49.7885 26.8018 49.3271 26.0972 49.2632 25.9801C49.1672 25.8011 48.9052 25.5814 48.9052 25.5814C48.6432 26.0081 48.4496 26.8344 48.4496 27.288L47.5123 26.9711C47.6363 26.3523 47.8841 25.5541 48.022 25.168C48.022 24.8377 47.6502 24.3971 47.3467 24.3971C46.9191 24.3971 46.4773 24.8649 46.2576 25.76L45.3065 26.1729C45.4167 24.7278 45.9122 23.1449 47.3471 23.1449C48.5057 23.1449 49.223 24.0261 49.7746 24.8511C50.3271 25.677 52.1334 28.1407 52.5191 28.622L53.2363 29.5308C53.3604 30.0955 53.6025 30.4238 53.7196 30.6049C53.9674 30.9901 54.2436 30.9629 54.6155 30.6187C54.7851 30.4621 55.3315 30.0182 55.8608 29.4662C56.3205 28.9877 56.7676 28.4076 56.947 28.1139C57.4722 28.3494 58.4527 28.8165 59.2423 29.1643C55.8551 25.0004 52.6151 19.9472 51.2099 16.5104C50.6277 15.0909 51.764 14.6145 52.3128 16.0152C53.8018 19.8142 58.1597 26.5309 61.359 30.054C65.0567 34.1268 71.8413 40.0196 76.2538 42.3866C75.613 41.1413 74.7693 39.3516 73.7941 37.2797C68.426 34.2496 63.001 28.6855 60.4717 23.9056L61.5844 24.0346C63.9371 28.1879 69.5598 33.7293 72.8804 35.3395C69.8426 28.9076 65.8911 20.7597 62.8077 17.2536C58.9832 12.9055 54.8046 9.54304 52.8087 7.79287C50.8421 6.06792 50.033 3.90238 47.1998 3.90238C44.8654 3.90238 43.6372 5.58217 43.169 7.27498C43.073 7.60532 43.0172 7.81199 42.7817 8.15616L41.6788 9.47713L44.0644 9.18828L42.6857 11.1154C42.6857 11.1154 46.4252 10.2782 47.7332 12.0515C49.144 13.9632 48.2332 16.11 50.5468 20.282C51.5639 22.1164 54.026 25.4138 54.8506 26.146L53.2363 29.5312L52.5191 28.622Z" fill="#3277B6"/>
<path d="M15.7656 29.2007L15.2001 28.8154C15.5162 28.5518 16.1415 28.1372 16.7586 27.8797C17.0776 27.7458 17.4413 27.6804 17.7045 27.6804C18.3383 27.6804 18.8843 27.9448 19.4176 28.2283C20.2602 28.6771 21.2073 29.2031 21.9347 29.2031C22.2105 29.2031 22.4766 29.1388 22.7886 29.1388C23.5059 29.1388 24.1954 29.4602 24.5909 29.4602C24.8305 29.4602 24.9948 29.2458 25.1523 29.0196C25.5477 28.4513 26.0953 28.0298 26.7918 27.7389C27.5412 27.4261 28.4435 27.3008 29.424 27.3008C30.1957 27.3008 30.9365 27.411 31.3226 27.4936C31.3226 27.4936 30.7335 28.2027 30.5859 28.3593C29.8072 28.3593 28.3211 28.3341 27.3683 28.7165C26.782 28.9529 26.5745 29.2946 26.5745 29.7788C26.5745 30.4809 27.3585 30.7535 28.2332 31.0184C28.7486 31.175 29.3267 31.2128 29.8141 31.2128C30.4142 31.2128 31.5663 30.9866 32.7042 30.7372C34.0764 30.435 35.3535 30.0757 35.7253 29.9378L36.2228 30.828C34.6948 31.3442 33.1322 31.8328 31.6806 32.1274C30.8601 32.2934 30.079 32.3971 29.3825 32.3971C28.2181 32.3971 26.9533 31.9097 25.9159 31.415C25.04 30.998 24.2573 30.5871 23.5579 30.5871C22.7723 30.5871 22.0327 30.8573 21.3057 31.2718C20.9493 31.4752 19.8753 32.214 18.9185 32.5899C18.1846 32.8788 17.5857 33.0391 16.842 33.0391C16.1793 33.0391 15.7835 32.9471 15.4409 32.679L16.5926 31.9748C16.7403 32.1233 17.0064 32.1497 17.172 32.1497C17.3375 32.1497 17.5357 32.129 17.9868 31.9402C18.2444 31.8324 18.6219 31.6005 18.842 31.4581C19.296 31.1648 19.4494 30.9935 19.6276 30.8532C19.977 30.5782 20.1052 30.2133 19.6597 29.8162C19.4522 29.6295 19.2338 29.4403 18.9522 29.2702C18.5552 29.0302 18.2667 28.7975 17.5454 28.7975C16.6948 28.7967 16.0959 29.0294 15.7656 29.2007Z" fill="#3277B6"/>
<path d="M31.8193 29.6551C31.8193 29.6551 31.1338 29.4671 30.8946 29.4484C31.3612 28.8186 31.9658 28.295 32.4393 27.9761C33.3754 27.3459 34.3547 26.9985 35.8363 26.9098C36.2403 26.8854 37.0609 26.8069 37.519 26.8268C37.9327 26.8455 38.6316 26.8728 39.274 26.992C39.7296 27.0766 40.1544 27.2035 40.5067 27.258C40.7227 27.2922 41.4705 27.2816 41.7296 27.2401C42.7784 27.075 44.0375 26.6714 44.7007 26.3105L44.9765 27.3154C43.5599 28.0383 41.9595 28.7332 40.4945 28.7332C39.7492 28.7332 38.9555 28.6783 38.2171 28.6079C36.916 28.4834 35.7879 28.3113 35.401 28.3113C34.3457 28.3113 32.8291 28.7999 31.8193 29.6551Z" fill="#3277B6"/>
<path d="M30.7746 35.2498L29.4418 34.6412C31.2888 33.7079 34.1118 32.7718 35.2708 32.5888C36.4283 32.4049 37.7529 32.2678 38.5161 32.0107C38.8656 32.8918 39.5551 33.8336 40.5482 33.8336C40.9119 33.8336 41.5079 33.5594 42.1055 33.297C42.7784 33.0009 43.4538 32.677 43.8032 32.5212C44.1808 32.354 45.4094 31.8158 46.448 31.3548C46.8463 31.1779 47.937 30.66 47.9996 30.625L48.699 31.0009C48.4899 31.9179 48.1404 33.0456 47.7478 33.8519C47.5932 34.1672 47.4399 34.4292 47.2743 34.6164C46.9692 34.9589 46.4777 35.4117 45.8398 35.8649C45.1405 36.3613 44.2869 36.869 43.383 37.3873C42.6783 37.7913 41.9705 38.2022 41.252 38.5317L40.8802 37.8576C41.9876 37.2315 43.1145 36.4398 44.1018 35.7075C44.5697 35.3613 45.0237 35.0114 45.3471 34.7165C45.588 34.4976 45.7385 34.3153 45.8581 34.1384C46.1522 33.7071 46.6299 32.8634 46.7775 32.4602C46.3638 32.6616 44.8012 33.3963 44.1018 33.7624C43.3134 34.1762 42.0335 34.8271 41.3163 35.1648C40.752 35.4317 40.2492 35.5765 39.8871 35.5765C39.0861 35.5765 38.7211 35.0012 38.5251 34.653C38.0194 33.7531 37.4775 33.6701 36.0528 33.6522C34.3974 33.631 32.1257 34.3137 30.7746 35.2498Z" fill="#3277B6"/>
<path d="M38.5495 31.1002C38.5495 31.1002 38.3546 30.3138 38.2623 30.0299C38.2623 30.0299 38.4933 29.9534 38.796 29.9534C39.2932 29.9534 40.5189 30.0913 41.0271 30.0913C42.9424 30.0913 43.6499 29.4908 44.2113 28.9839C44.6905 28.5515 45.1848 28.2012 46.4887 28.2012C47.6376 28.2012 48.9565 28.6621 49.3328 28.846L49.2507 29.8891C48.6896 29.5799 47.9179 29.3688 47.2369 29.3688C46.7621 29.3688 46.3341 29.4062 46.0323 29.5616C45.6926 29.7365 45.4875 30.001 45.1686 30.2609C44.8301 30.5368 44.3675 30.8061 43.7618 31.0298C43.1544 31.2532 42.4054 31.4029 41.2838 31.4029C39.807 31.4033 39.0076 31.158 38.5495 31.1002Z" fill="#3277B6"/>
<path d="M26.4167 38.9858L27.2983 38.6209C28.1075 38.933 29.2776 39.2881 30.0924 39.2881C30.5814 39.2881 30.9866 39.1111 31.3182 38.9643C31.5773 38.8496 34.5203 37.4086 35.9812 36.8801C36.445 36.7113 36.9157 36.6181 37.1456 36.6181C37.495 36.6181 37.5146 36.7747 37.6151 36.935C37.8909 37.3752 40.0609 40.4695 40.2822 40.7083C42.1247 40.142 44.012 39.3162 45.0999 38.2715C46.2349 37.1824 47.1751 35.9184 48.086 34.9412C48.4371 34.5636 48.8715 34.2215 49.0859 34.1084C50.0273 33.6084 52.9565 33.5645 54.188 33.6202L53.4569 34.6515C51.2881 34.6515 50.0737 34.8745 49.5278 35.2853C49.2967 35.4582 48.9468 35.8085 48.6152 36.241C47.8744 37.2048 47.0648 38.5245 46.7406 38.7816C47.3756 39.2218 48.0693 39.6071 49.1726 39.6071C51.0123 39.6071 52.3288 38.4578 53.0501 37.8109L53.6684 38.1787C53.2128 38.7706 52.6908 39.3752 52.0236 39.828C51.284 40.3292 50.3552 40.653 49.8036 40.8052C48.7365 40.603 46.3871 40.1311 45.8354 40.0208C43.8033 40.8459 40.4942 42.1811 39.3811 42.5159C39.2208 42.5647 38.9604 42.6038 38.6333 42.6355C37.753 42.6835 36.5313 42.6774 35.4186 42.6627C34.629 42.6522 33.8808 42.6579 33.5061 42.5895L32.5257 41.5663C33.3906 41.7315 33.7262 41.7824 34.5354 41.7824C36.4475 41.7824 37.6789 41.4638 38.0841 41.3597C38.4255 41.2726 38.4812 41.0741 38.3795 40.7681C38.218 40.2771 37.9352 39.8141 37.5048 39.3162C37.2737 39.0485 36.7526 38.5863 36.5394 38.4415C36.2762 38.2633 36.0199 38.2178 35.297 38.4631C34.6281 38.6901 32.5529 39.8113 31.6563 40.2869C31.2161 40.52 30.8707 40.5891 30.0782 40.4032C29.2357 40.2059 27.2231 39.474 26.4167 38.9858Z" fill="#3277B6"/>
<path d="M32.1716 15.9896C32.5873 15.9896 32.9243 15.6527 32.9243 15.237C32.9243 14.8213 32.5873 14.4844 32.1716 14.4844C31.756 14.4844 31.419 14.8213 31.419 15.237C31.419 15.6527 31.756 15.9896 32.1716 15.9896Z" fill="#3277B6"/>
</svg>
