<svg width="200" height="79" viewBox="0 0 200 79" fill="none" xmlns="http://www.w3.org/2000/svg">
<path d="M21.3966 69.2607H20.0659V64.5541C20.0659 63.4615 20.1266 62.3082 20.248 61.0942L16.3398 69.2607H14.6309V59.6094H15.9616V64.316C15.9616 65.6234 15.9009 66.7907 15.7795 67.8179L19.7297 59.6094H21.3966V69.2607ZM29.8193 69.2607V64.7362H25.757V69.2607H24.4263V59.6094H25.757V63.6436H29.8193V59.6094H31.15V69.2607H29.8193ZM39.8818 59.6094L39.7418 60.744H37.0663V69.2607H35.7355V60.744H32.99V59.6094H39.8818ZM46.8755 59.6094L46.7214 60.674H42.9813V63.8257H46.2311V64.8903H42.9813V68.1961H46.9875V69.2607H41.6506V59.6094H46.8755ZM51.9158 59.6094C53.1111 59.6094 54.0356 59.8615 54.6893 60.3658C55.343 60.8607 55.6699 61.6031 55.6699 62.593C55.6699 63.6483 55.329 64.4327 54.6473 64.9463C53.9656 65.46 53.0597 65.7168 51.9298 65.7168H50.7111V69.2607H49.3804V59.6094H51.9158ZM51.8737 64.6662C52.6488 64.6662 53.2372 64.5168 53.6387 64.2179C54.0496 63.9191 54.2551 63.3821 54.2551 62.607C54.2551 61.916 54.0496 61.4164 53.6387 61.1082C53.2372 60.8 52.6582 60.646 51.9018 60.646H50.7111V64.6662H51.8737ZM63.1461 69.2607V64.7362H59.0839V69.2607H57.7531V59.6094H59.0839V63.6436H63.1461V59.6094H64.4768V69.2607H63.1461ZM72.7324 59.6094L72.5783 60.674H68.8382V63.8257H72.0881V64.8903H68.8382V68.1961H72.8445V69.2607H67.5075V59.6094H72.7324ZM80.9383 59.6094L80.7982 60.744H78.1227V69.2607H76.7922V60.744H74.0467V59.6094H80.9383ZM81.4495 65.4226V64.33H85.4137V65.4226H81.4495ZM93.4674 59.6094L93.2713 60.758H89.2231V69.2607H87.8923V59.6094H93.4674ZM102.005 69.2607H100.674V64.5541C100.674 63.4615 100.735 62.3082 100.857 61.0942L96.9484 69.2607H95.2394V59.6094H96.5702V64.316C96.5702 65.6234 96.5095 66.7907 96.3881 67.8179L100.338 59.6094H102.005V69.2607ZM111.688 59.6094V69.2607H110.358V60.744H106.365V69.2607H105.035V59.6094H111.688ZM119.946 59.6094L119.792 60.674H116.052V63.8257H119.302V64.8903H116.052V68.1961H120.058V69.2607H114.721V59.6094H119.946ZM124.986 59.6094C126.181 59.6094 127.106 59.8615 127.759 60.3658C128.413 60.8607 128.74 61.6031 128.74 62.593C128.74 63.6483 128.399 64.4327 127.717 64.9463C127.036 65.46 126.13 65.7168 125 65.7168H123.781V69.2607H122.45V59.6094H124.986ZM124.944 64.6662C125.719 64.6662 126.307 64.5168 126.709 64.2179C127.12 63.9191 127.325 63.3821 127.325 62.607C127.325 61.916 127.12 61.4164 126.709 61.1082C126.307 60.8 125.728 60.646 124.972 60.646H123.781V64.6662H124.944ZM139.028 69.2607H137.739L137.403 64.9043C137.263 63.1954 137.183 61.8833 137.165 60.9681L135.078 68.1681H133.831L131.632 60.9541C131.632 62.1214 131.571 63.4709 131.45 65.0024L131.127 69.2607H129.867L130.665 59.6094H132.458L134.489 66.6273L136.422 59.6094H138.229L139.028 69.2607ZM146.676 69.2607L145.948 66.8374H142.292L141.563 69.2607H140.218L143.314 59.6094H144.995L148.077 69.2607H146.676ZM142.614 65.7588H145.625L144.127 60.716L142.614 65.7588ZM152.334 59.6094C153.53 59.6094 154.454 59.8615 155.108 60.3658C155.762 60.8607 156.088 61.6031 156.088 62.593C156.088 63.6483 155.748 64.4327 155.066 64.9463C154.384 65.46 153.478 65.7168 152.348 65.7168H151.13V69.2607H149.799V59.6094H152.334ZM152.292 64.6662C153.067 64.6662 153.656 64.5168 154.057 64.2179C154.468 63.9191 154.674 63.3821 154.674 62.607C154.674 61.916 154.468 61.4164 154.057 61.1082C153.656 60.8 153.077 60.646 152.32 60.646H151.13V64.6662H152.292ZM164.615 59.6094L161.94 64.1339L164.881 69.2607H163.341L160.819 64.7362H159.502V69.2607H158.172V59.6094H159.502V63.6436H160.833L163.215 59.6094H164.615ZM171.878 59.6094L171.724 60.674H167.984V63.8257H171.234V64.8903H167.984V68.1961H171.99V69.2607H166.653V59.6094H171.878ZM180.085 59.6094L179.944 60.744H177.269V69.2607H175.938V60.744H173.193V59.6094H180.085Z" fill="#595959"/>
<path fill-rule="evenodd" clip-rule="evenodd" d="M134.596 33.7278C133.458 33.7278 132.415 34.031 131.485 34.5612L119.964 17.4762L107.42 31.3152L98.596 17.4762L85.2147 33.0819C85.2715 32.6081 85.291 32.1513 85.291 31.6591C85.291 27.8616 83.9431 24.3675 81.7229 21.6346L58.2464 42.4029C61.094 45.5335 65.174 47.4893 69.6908 47.4893C71.8731 47.4893 73.961 47.0339 75.8388 46.2187C78.0785 45.3445 80.1665 43.9781 81.8373 42.08L89.7136 33.12L98.4031 46.6742L110.816 33.0045L119.851 46.959L128.353 38.5293C128.373 38.5477 128.391 38.5477 128.41 38.5477C128.258 39.0806 128.184 39.6504 128.184 40.237C128.184 43.8258 131.067 46.749 134.596 46.749C135.109 46.749 135.604 46.6742 136.078 46.5587C137.919 46.2568 138.981 45.611 140.576 44.3574L152.303 31.772C152.36 40.43 159.345 47.4723 167.885 47.4723C174.187 47.4723 179.634 43.6368 182.1 38.1303L178.437 38.1119C172.366 45.3826 162.99 46.2752 157.923 37.8087L169.538 25.8284C169.518 25.7549 168.931 27.4626 168.987 27.7855C168.987 30.479 169.689 31.6945 172.081 33.1594C180.41 35.9658 184.796 22.6216 175.002 17.6297C173.085 16.5455 170.562 15.8433 167.885 15.8433C161.395 15.8433 155.796 19.9072 153.462 25.6604L147.673 17.3816L129.529 17.4591L142.7 37.5816L140.956 39.4784C140.576 36.2532 137.862 33.7278 134.596 33.7278ZM69.6908 15.8433C61.1125 15.8433 54.0891 22.963 54.0891 31.6591C54.0891 33.6122 54.4513 35.4919 55.0957 37.2403L48.1694 43.2574C47.9424 43.4858 47.7141 43.4858 47.4858 43.2574C43.2143 38.15 38.9441 33.0255 34.674 27.9365C34.674 27.8616 34.674 27.8236 34.674 27.7672L43.4243 16.7739C43.5201 18.1219 45.6066 22.0323 49.5539 22.2423C52.3819 22.3932 54.6599 20.9139 55.7793 18.9371C57.2976 16.2816 57.1454 13.3007 55.0196 10.7188C52.9317 8.91518 51.6982 8.47813 48.9463 8.57261C46.5553 8.83907 44.9439 9.84452 43.1959 11.6665L34.2016 22.6781L34.2199 9.96008L14.8232 18.9016L14.7852 53.6967L34.2199 44.4729V33.0045L47.3519 47.5851C47.5619 47.7571 47.7508 47.7571 47.9989 47.5851C50.8255 45.0806 53.6732 42.5932 56.5011 40.0861C56.5011 40.1058 56.5195 40.1058 56.5195 40.1058L79.8062 19.6407C79.7859 19.6407 79.768 19.6223 79.768 19.6013C79.768 19.6013 79.7859 19.5842 79.8062 19.5842C79.6552 19.4504 79.5027 19.3558 79.3501 19.2613C76.6931 17.1349 73.3336 15.8433 69.6908 15.8433ZM73.6761 32.4361C76.5802 32.4361 78.9525 34.9433 78.9525 37.9991C78.9525 41.0549 76.5802 43.5593 73.6761 43.5593C70.7721 43.5593 68.3995 41.0549 68.3995 37.9991C68.3995 34.9433 70.7721 32.4361 73.6761 32.4361Z" fill="#BB0000"/>
</svg>
