<svg width="172" height="172" viewBox="0 0 172 172" fill="none" xmlns="http://www.w3.org/2000/svg" xmlns:xlink="http://www.w3.org/1999/xlink">
<rect width="172" height="172" rx="20" fill="#F0F1FA"/>
<rect width="172" height="172" rx="20" fill="url(#pattern0)" fill-opacity="0.08"/>
<defs>
<pattern id="pattern0" patternContentUnits="objectBoundingBox" width="0.0465116" height="0.0465116">
<use xlink:href="#image0" transform="scale(0.00581395)"/>
</pattern>
<image id="image0" width="8" height="8" xlink:href="data:image/png;base64,iVBORw0KGgoAAAANSUhEUgAAAAgAAAAICAYAAADED76LAAAACXBIWXMAABYlAAAWJQFJUiTwAAAAAXNSR0IArs4c6QAAAARnQU1BAACxjwv8YQUAAAAtSURBVHgBvY6hDQAACMMGP6L4/w7IBAmGIEiomZhogSsyHeYRXMUfdJa3szYk6dAIEAWaNMIAAAAASUVORK5CYII="/>
</defs>
</svg>
