<svg width="24" height="24" viewBox="0 0 24 24" fill="none" xmlns="http://www.w3.org/2000/svg">
<path d="M12 3.375V7.125" stroke="#1753FF" stroke-width="2" stroke-linecap="round" stroke-linejoin="round"/>
<path d="M3.375 12H7.125" stroke="#1753FF" stroke-width="2" stroke-linecap="round" stroke-linejoin="round"/>
<path d="M12 20.625V16.875" stroke="#1753FF" stroke-width="2" stroke-linecap="round" stroke-linejoin="round"/>
<path d="M20.625 12H16.875" stroke="#1753FF" stroke-width="2" stroke-linecap="round" stroke-linejoin="round"/>
<path d="M12 20.625C16.7635 20.625 20.625 16.7635 20.625 12C20.625 7.23654 16.7635 3.375 12 3.375C7.23654 3.375 3.375 7.23654 3.375 12C3.375 16.7635 7.23654 20.625 12 20.625Z" stroke="black" stroke-width="2" stroke-linecap="round" stroke-linejoin="round"/>
</svg>
