<svg width="24" height="24" viewBox="0 0 24 24" fill="none" xmlns="http://www.w3.org/2000/svg">
<path d="M17.2656 9.34839H21.0156V5.59839" stroke="black" stroke-width="2" stroke-linecap="round" stroke-linejoin="round"/>
<path d="M17.8336 17.8336C16.6799 18.9874 15.2098 19.7732 13.6095 20.0915C12.0092 20.4098 10.3504 20.2464 8.84286 19.622C7.33537 18.9976 6.0469 17.9402 5.14038 16.5835C4.23385 15.2268 3.75 13.6317 3.75 12C3.75 10.3683 4.23385 8.77325 5.14038 7.41655C6.0469 6.05984 7.33537 5.00242 8.84286 4.378C10.3504 3.75357 12.0092 3.5902 13.6095 3.90853C15.2098 4.22685 16.6799 5.01259 17.8336 6.16637L21.0156 9.34835" stroke="black" stroke-width="2" stroke-linecap="round" stroke-linejoin="round"/>
<path d="M7.5 14.1953V13.6711L9.10882 12.272C9.2679 12.137 9.4101 12.0104 9.53543 11.8923C9.66076 11.7742 9.76681 11.6574 9.85358 11.5417C9.94035 11.426 10.0066 11.3091 10.0524 11.191C10.0982 11.0729 10.1211 10.9463 10.1211 10.8114C10.1211 10.6812 10.0994 10.5643 10.056 10.4607C10.0151 10.3546 9.95722 10.2642 9.8825 10.1895C9.8102 10.1124 9.72343 10.0534 9.6222 10.0124C9.52097 9.9714 9.41251 9.95092 9.29682 9.95092C9.18113 9.95092 9.07146 9.9714 8.96782 10.0124C8.86659 10.0509 8.77742 10.1088 8.70029 10.1859C8.62557 10.263 8.56532 10.3582 8.51952 10.4715C8.47614 10.5848 8.45445 10.715 8.45445 10.862H7.56508C7.56508 10.6764 7.5952 10.486 7.65546 10.2908C7.71812 10.0931 7.81694 9.91356 7.95192 9.75207C8.0893 9.58818 8.26645 9.45441 8.48337 9.35077C8.70029 9.24713 8.963 9.19531 9.27151 9.19531C9.54387 9.19531 9.78609 9.23749 9.99819 9.32185C10.2127 9.40621 10.3935 9.5219 10.5405 9.66892C10.6899 9.81353 10.8032 9.98345 10.8803 10.1787C10.9599 10.3739 10.9996 10.5824 10.9996 10.8041C10.9996 10.9777 10.9767 11.1404 10.9309 11.2922C10.8876 11.444 10.8237 11.5887 10.7393 11.726C10.6574 11.8634 10.5586 11.996 10.4429 12.1237C10.3272 12.2515 10.197 12.3768 10.0524 12.4997L8.91359 13.4867C8.96662 13.4795 9.02808 13.4722 9.09798 13.465C9.15823 13.4602 9.23054 13.4566 9.3149 13.4542C9.40166 13.4493 9.49928 13.4469 9.60774 13.4469H11.09V14.1953H7.5Z" fill="#1753FF"/>
<path d="M14.304 12.4057L14.3077 10.4932L12.8362 12.4093L14.304 12.4057ZM15.179 13.1505V14.1953H14.304V13.1505H11.8529L11.7914 12.572L14.2028 9.26039H15.179V12.3985H15.9526V13.1505H15.179Z" fill="#1753FF"/>
</svg>
