<svg width="40" height="40" viewBox="0 0 40 40" fill="none" xmlns="http://www.w3.org/2000/svg">
<path d="M20.6786 30.6772L28.4379 35.7898C29.4298 36.4434 30.6612 35.4714 30.3669 34.2673L28.125 25.0957C28.0619 24.8403 28.0694 24.5715 28.1466 24.3203C28.2238 24.069 28.3677 23.8456 28.5616 23.6756L35.5196 17.6526C36.4339 16.8612 35.962 15.2832 34.7874 15.2039L25.7006 14.5906C25.4559 14.5724 25.2211 14.4823 25.0237 14.3308C24.8263 14.1792 24.6744 13.9724 24.5856 13.7345L21.1966 4.85884C21.1045 4.60634 20.9407 4.38895 20.7269 4.23555C20.5132 4.08215 20.2597 4 20 4C19.7403 4 19.4868 4.08215 19.2731 4.23555C19.0593 4.38895 18.8955 4.60634 18.8034 4.85884L15.4144 13.7345C15.3256 13.9724 15.1737 14.1792 14.9763 14.3308C14.7789 14.4823 14.5441 14.5724 14.2994 14.5906L5.21262 15.2039C4.03799 15.2832 3.56611 16.8612 4.48037 17.6526L11.4384 23.6756C11.6323 23.8456 11.7762 24.069 11.8534 24.3203C11.9306 24.5715 11.9381 24.8403 11.875 25.0957L9.79591 33.6014C9.44273 35.0462 10.9205 36.2126 12.1107 35.4284L19.3214 30.6772C19.5242 30.543 19.7596 30.4716 20 30.4716C20.2404 30.4716 20.4758 30.543 20.6786 30.6772Z" fill="#CCCCCC"/>
</svg>
