<svg width="20" height="20" viewBox="0 0 20 20" fill="none" xmlns="http://www.w3.org/2000/svg">
<path d="M10 15L1 15" stroke="black" stroke-width="2" stroke-linecap="round" stroke-linejoin="round"/>
<path d="M19 15L16 15" stroke="black" stroke-width="2" stroke-linecap="round" stroke-linejoin="round"/>
<path d="M13 18C14.6569 18 16 16.6569 16 15C16 13.3431 14.6569 12 13 12C11.3431 12 10 13.3431 10 15C10 16.6569 11.3431 18 13 18Z" stroke="black" stroke-width="2" stroke-linecap="round" stroke-linejoin="round"/>
<path d="M5 5.00007L1 5" stroke="black" stroke-width="2" stroke-linecap="round" stroke-linejoin="round"/>
<path d="M18.875 5L11.6875 5.00007" stroke="black" stroke-width="2" stroke-linecap="round" stroke-linejoin="round"/>
<path d="M8 7.99951C9.65685 7.99951 11 6.65637 11 4.99951C11 3.34266 9.65685 1.99951 8 1.99951C6.34315 1.99951 5 3.34266 5 4.99951C5 6.65637 6.34315 7.99951 8 7.99951Z" stroke="black" stroke-width="2" stroke-linecap="round" stroke-linejoin="round"/>
</svg>
