<svg width="22" height="22" viewBox="0 0 22 22" fill="none" xmlns="http://www.w3.org/2000/svg">
<path fill-rule="evenodd" clip-rule="evenodd" d="M17.2527 6.00001C18.2996 6.00001 19.1693 6.8073 19.2471 7.85127L20.0054 18.0179C20.0919 19.1779 19.1741 20.1667 18.0109 20.1667H3.98711C2.8239 20.1667 1.90608 19.1778 1.99266 18.0178L2.75146 7.85115C2.82938 6.80723 3.69909 6.00001 4.74591 6.00001H17.2527Z" stroke="#1753FF" stroke-width="2"/>
<path d="M15.1656 8.50001V5.36251C15.1656 3.41334 13.3006 1.83334 10.9989 1.83334C8.69728 1.83334 6.83228 3.41334 6.83228 5.36251V8.50001" stroke="black" stroke-width="2" stroke-linecap="round"/>
</svg>
