<svg width="24" height="24" viewBox="0 0 24 24" fill="none" xmlns="http://www.w3.org/2000/svg">
<path d="M4.64874 17.193L5.71511 16.5492C5.82936 16.4803 5.91996 16.3782 5.97492 16.2566C6.02988 16.135 6.04659 15.9996 6.02285 15.8682L5.41724 12.5178C5.39064 12.3707 5.4149 12.2188 5.48603 12.0873L6.48778 10.235C6.52931 10.1582 6.5857 10.0905 6.65366 10.0356L8.18706 8.79904C8.28875 8.71702 8.41254 8.66711 8.54268 8.65564C8.67283 8.64417 8.80344 8.67166 8.91791 8.73462L9.59235 9.10556C9.73167 9.18219 9.83857 9.30664 9.89331 9.45593L10.0221 9.80721C10.0654 9.92514 10.1414 10.0282 10.2413 10.1044C10.3413 10.1805 10.4609 10.2265 10.586 10.2368C10.7112 10.2472 10.8368 10.2216 10.9478 10.163C11.0589 10.1044 11.151 10.0152 11.213 9.90599L11.6557 9.12736C11.7 9.04947 11.7597 8.98143 11.8312 8.92741C11.9027 8.87339 11.9844 8.83453 12.0715 8.8132C12.1585 8.79186 12.2489 8.78851 12.3373 8.80335C12.4257 8.81818 12.5101 8.85089 12.5854 8.89947L13.9367 9.77147C14.0484 9.84351 14.1792 9.8801 14.312 9.87644C14.4448 9.87277 14.5734 9.82902 14.6809 9.75092C14.7884 9.67283 14.8698 9.56405 14.9143 9.43888C14.9589 9.3137 14.9645 9.17797 14.9305 9.04953V9.04953C14.8912 8.90115 14.905 8.74372 14.9695 8.60442C15.0339 8.46512 15.145 8.35271 15.2835 8.2866L17.1459 7.39776C17.2766 7.33536 17.3831 7.23162 17.4489 7.10258C17.5147 6.97354 17.5362 6.8264 17.5099 6.68395L17.1261 4.60205" stroke="#1753FF" stroke-width="2" stroke-linecap="round" stroke-linejoin="round"/>
<path d="M17.9465 18.755L16.5807 17.3865C16.5195 17.3252 16.4469 17.2766 16.3669 17.2434C16.2869 17.2102 16.2011 17.1932 16.1145 17.1932H15.0425C14.9479 17.1932 14.8544 17.1728 14.7684 17.1334C14.6823 17.094 14.6058 17.0366 14.544 16.965C14.4822 16.8934 14.4365 16.8093 14.4101 16.7185C14.3836 16.6276 14.3771 16.5322 14.3909 16.4386L14.6141 14.9228C14.6292 14.8198 14.6686 14.7219 14.7289 14.6371C14.7892 14.5522 14.8687 14.4829 14.961 14.4348L17.1982 13.2676C17.3167 13.2057 17.4512 13.1814 17.5839 13.1979C17.7166 13.2143 17.8411 13.2708 17.9409 13.3597L20.3072 15.4678" stroke="#1753FF" stroke-width="2" stroke-linecap="round" stroke-linejoin="round"/>
<path d="M12 21C16.9706 21 21 16.9706 21 12C21 7.02944 16.9706 3 12 3C7.02944 3 3 7.02944 3 12C3 16.9706 7.02944 21 12 21Z" stroke="black" stroke-width="2" stroke-miterlimit="10"/>
</svg>
