<svg width="24" height="24" viewBox="0 0 24 24" fill="none" xmlns="http://www.w3.org/2000/svg">
<path d="M20.25 12.5761L18.75 14.3309L15.3003 17.7806C15.2087 17.8722 15.095 17.9385 14.9701 17.9731C14.8453 18.0076 14.7137 18.0093 14.588 17.9779L9.15458 16.6195C9.05266 16.594 8.95724 16.5474 8.87448 16.4827L3.75 12.4756" stroke="black" stroke-width="2" stroke-linecap="round" stroke-linejoin="round"/>
<path d="M22.5673 11.4182L20.25 12.5768L17.25 6.83165L19.5909 5.66121C19.7667 5.57328 19.9701 5.55792 20.1572 5.61846C20.3443 5.679 20.5001 5.81058 20.5911 5.98488L22.8967 10.4002C22.9428 10.4885 22.9708 10.5851 22.9792 10.6843C22.9876 10.7836 22.9761 10.8835 22.9454 10.9783C22.9148 11.073 22.8655 11.1608 22.8006 11.2363C22.7357 11.3118 22.6564 11.3737 22.5673 11.4182V11.4182Z" stroke="#1753FF" stroke-width="2" stroke-linecap="round" stroke-linejoin="round"/>
<path d="M3.75 12.4763L1.43272 11.3176C1.34363 11.2731 1.26431 11.2112 1.19938 11.1357C1.13445 11.0602 1.08522 10.9725 1.05456 10.8777C1.02389 10.7829 1.01241 10.683 1.02078 10.5838C1.02915 10.4845 1.05721 10.3879 1.10331 10.2996L3.40889 5.8843C3.49991 5.71 3.65573 5.57842 3.84281 5.51788C4.02988 5.45734 4.23325 5.47269 4.40912 5.56062L6.75 6.73106L3.75 12.4763Z" stroke="black" stroke-width="2" stroke-linecap="round" stroke-linejoin="round"/>
<path d="M10.5 19.9558L7.67443 19.2494C7.55977 19.2207 7.4535 19.1654 7.3643 19.0878L5.25 17.25" stroke="#1753FF" stroke-width="2" stroke-linecap="round" stroke-linejoin="round"/>
<path d="M6.80383 6.72949L11.6151 5.32685C11.7869 5.27674 11.9711 5.28977 12.1342 5.36357L15.375 6.82997" stroke="black" stroke-width="2" stroke-linecap="round" stroke-linejoin="round"/>
<path d="M18.75 14.3311L14.625 11.3311L13.425 12.2311C12.9058 12.6205 12.2742 12.8311 11.625 12.8311C10.9759 12.8311 10.3443 12.6205 9.82504 12.2311L9.31685 11.8499C9.23088 11.7854 9.15978 11.7032 9.10834 11.6089C9.05691 11.5146 9.02635 11.4103 9.01873 11.3031C9.01112 11.1959 9.02662 11.0883 9.06419 10.9877C9.10177 10.887 9.16053 10.7956 9.23652 10.7196L12.9054 7.05072C12.975 6.98108 13.0577 6.92584 13.1487 6.88814C13.2397 6.85045 13.3372 6.83105 13.4357 6.83105H17.25" stroke="#1753FF" stroke-width="2" stroke-linecap="round" stroke-linejoin="round"/>
</svg>
