<svg width="50" height="50" viewBox="0 0 50 50" fill="none" xmlns="http://www.w3.org/2000/svg">
<path d="M10.9375 34.375H28.125" stroke="#1753FF" stroke-width="2" stroke-linecap="round" stroke-linejoin="round"/>
<path d="M17.1875 42.1875V7.8125H28.9062C31.5999 7.8125 34.1831 8.88253 36.0878 10.7872C37.9925 12.6919 39.0625 15.2751 39.0625 17.9688C39.0625 20.6624 37.9925 23.2456 36.0878 25.1503C34.1831 27.055 31.5999 28.125 28.9062 28.125H10.9375" stroke="black" stroke-width="2" stroke-linecap="round" stroke-linejoin="round"/>
</svg>
