<svg width="50" height="50" viewBox="0 0 50 50" fill="none" xmlns="http://www.w3.org/2000/svg">
<path d="M25.2899 37.5642C25.5871 38.3676 26.0986 39.0742 26.7691 39.6074C27.4395 40.1405 28.2432 40.4798 29.0929 40.5883C29.9426 40.6969 30.8057 40.5705 31.5887 40.2231C32.3716 39.8756 33.0444 39.3202 33.5339 38.6173C34.0235 37.9144 34.3111 37.0908 34.3655 36.236C34.42 35.3811 34.2391 34.5277 33.8427 33.7684C33.4463 33.009 32.8494 32.3728 32.1168 31.9289C31.3843 31.4849 30.5441 31.2501 29.6875 31.25H7.8125" stroke="black" stroke-width="2" stroke-linecap="round" stroke-linejoin="round"/>
<path d="M19.0399 12.4369C19.3371 11.6335 19.8486 10.9269 20.5191 10.3938C21.1895 9.86061 21.9932 9.52134 22.8429 9.41279C23.6926 9.30425 24.5557 9.43057 25.3387 9.77805C26.1216 10.1255 26.7944 10.6809 27.2839 11.3838C27.7735 12.0867 28.0611 12.9103 28.1155 13.7651C28.17 14.62 27.9891 15.4734 27.5927 16.2328C27.1963 16.9921 26.5994 17.6283 25.8668 18.0722C25.1343 18.5162 24.2941 18.751 23.4375 18.7511H4.6875" stroke="#1753FF" stroke-width="2" stroke-linecap="round" stroke-linejoin="round"/>
<path d="M36.2274 18.6869C36.5246 17.8835 37.0361 17.1769 37.7066 16.6438C38.377 16.1106 39.1807 15.7713 40.0304 15.6628C40.8801 15.5542 41.7432 15.6806 42.5262 16.0281C43.3091 16.3755 43.9819 16.9309 44.4714 17.6338C44.961 18.3367 45.2486 19.1603 45.303 20.0151C45.3575 20.87 45.1766 21.7234 44.7802 22.4828C44.3838 23.2421 43.7869 23.8783 43.0543 24.3222C42.3218 24.7662 41.4816 25.001 40.625 25.0011H6.25" stroke="black" stroke-width="2" stroke-linecap="round" stroke-linejoin="round"/>
</svg>
