<svg width="50" height="50" viewBox="0 0 50 50" fill="none" xmlns="http://www.w3.org/2000/svg">
<path d="M31.6291 18.3707C30.0792 16.8208 28.0351 15.863 25.8523 15.6638C23.6695 15.4646 21.4859 16.0365 19.681 17.2802C17.8761 18.5239 16.5641 20.3607 15.9729 22.4713C15.3817 24.582 15.5488 26.8331 16.4451 28.8333C17.3414 30.8336 18.9103 32.4565 20.879 33.4201C22.8478 34.3837 25.0919 34.627 27.2214 34.1077C29.3508 33.5884 31.231 32.3393 32.5352 30.5776C33.8393 28.8159 34.4849 26.6529 34.3598 24.4646" stroke="#1753FF" stroke-width="2" stroke-linecap="round" stroke-linejoin="round"/>
<path d="M25 25L43.75 6.25" stroke="black" stroke-width="2" stroke-linecap="round" stroke-linejoin="round"/>
<path d="M38.2584 11.7418C34.937 8.42702 30.4924 6.47956 25.804 6.28472C21.1156 6.08989 16.5247 7.66187 12.9398 10.6897C9.35486 13.7175 7.03693 17.9806 6.44457 22.6355C5.85222 27.2905 7.0286 31.9982 9.74098 35.8274C12.4534 39.6565 16.5042 42.3282 21.092 43.3138C25.6798 44.2994 30.4704 43.5271 34.5161 41.1498C38.5618 38.7724 41.5679 34.9632 42.9396 30.4757C44.3113 25.9881 43.9487 21.1492 41.9236 16.9162" stroke="black" stroke-width="2" stroke-linecap="round" stroke-linejoin="round"/>
</svg>
