<svg width="20" height="20" viewBox="0 0 20 20" fill="none" xmlns="http://www.w3.org/2000/svg">
<path d="M9.60903 13.5221H6.47852V10.3916L15.8701 1L19.0006 4.13052L9.60903 13.5221Z" stroke="black" stroke-width="2" stroke-linecap="round" stroke-linejoin="round"/>
<path d="M13.522 3.34778L16.6525 6.4783" stroke="black" stroke-width="2" stroke-linecap="round" stroke-linejoin="round"/>
<path d="M18.2178 9.60907V18.218C18.2178 18.4256 18.1354 18.6246 17.9886 18.7714C17.8418 18.9182 17.6428 19.0006 17.4352 19.0006H1.78263C1.57506 19.0006 1.376 18.9182 1.22923 18.7714C1.08246 18.6246 1 18.4256 1 18.218V2.56541C1 2.35784 1.08246 2.15877 1.22923 2.012C1.376 1.86523 1.57506 1.78278 1.78263 1.78278H10.3916" stroke="black" stroke-width="2" stroke-linecap="round" stroke-linejoin="round"/>
</svg>
