<svg width="32" height="32" viewBox="0 0 32 32" fill="none" xmlns="http://www.w3.org/2000/svg">
<path d="M12 20H20" stroke="#1753FF" stroke-width="2" stroke-linecap="round" stroke-linejoin="round"/>
<path d="M12 16H20" stroke="#1753FF" stroke-width="2" stroke-linecap="round" stroke-linejoin="round"/>
<path d="M12 12H16" stroke="#1753FF" stroke-width="2" stroke-linecap="round" stroke-linejoin="round"/>
<path d="M19.5858 5H6C5.73478 5 5.48043 5.10536 5.29289 5.29289C5.10536 5.48043 5 5.73478 5 6V26C5 26.2652 5.10536 26.5196 5.29289 26.7071C5.48043 26.8946 5.73478 27 6 27H26C26.2652 27 26.5196 26.8946 26.7071 26.7071C26.8946 26.5196 27 26.2652 27 26V12.4142C27 12.2829 26.9741 12.1529 26.9239 12.0315C26.8736 11.9102 26.8 11.8 26.7071 11.7071L20.2929 5.29289C20.2 5.20004 20.0898 5.12638 19.9685 5.07612C19.8471 5.02587 19.7171 5 19.5858 5V5Z" stroke="black" stroke-width="2" stroke-linecap="round" stroke-linejoin="round"/>
<path d="M26.9095 12.001H20V5.09098" stroke="black" stroke-width="2" stroke-linecap="round" stroke-linejoin="round"/>
</svg>
