<svg width="64" height="30" viewBox="0 0 64 30" fill="none" xmlns="http://www.w3.org/2000/svg">
<path fill-rule="evenodd" clip-rule="evenodd" d="M30.842 30H53.7193C55.4139 25.0474 57.1086 20.038 58.8597 15.0285L62.0229 5.74953H56.0353L49.2568 25.389H38.5808L45.6417 4.66793H47.5622L48.2401 7.34345L42.5914 24.1366H48.579L54.8491 5.06641L52.985 0H41.0662C39.3716 5.00949 37.677 10.019 35.9823 15.0285C34.2312 19.981 32.5366 24.9905 30.842 30ZM11.1845 15.5977H14.4607L16.2118 10.1898L17.9629 4.78178H16.3248H14.6867L12.9356 10.2467L11.1845 15.5977ZM62.4748 4.3833L64 0H58.0124L56.4872 4.3833H62.4748ZM0 30H15.3645L16.9462 25.2751H7.73875L8.58605 23.1689L9.43336 20.8918C9.99824 20.8918 10.5066 20.8918 11.0715 20.8918C11.6364 20.8918 12.1447 20.8918 12.7096 20.8918C12.4272 21.6319 12.1447 22.4288 11.8623 23.1689L11.4669 24.3074C11.9188 24.3074 12.3707 24.3074 12.7661 24.3074L17.3416 24.2505L20.3919 15.1423C22.0865 10.1328 23.7246 5.12334 25.4192 0.056926H12.8791L8.24713 5.06641L4.91439 15.0854C3.27626 20.038 1.63813 25.0474 0 30ZM16.6072 30H29.7123L31.2939 25.2751H23.6117L28.3566 11.7268L32.4237 0H26.549C24.8544 5.06641 23.2162 10.0759 21.5216 15.0854C19.8835 20.0949 18.2454 25.0474 16.6072 30ZM31.6893 24.0228L34.7396 15.0854C35.8129 11.9545 36.8861 8.7666 37.9594 5.63567H31.8588L29.7688 11.7837L25.5887 24.0228H31.6893ZM38.3548 4.32638C38.8632 2.90323 39.3151 1.42315 39.8235 0H33.7793C33.271 1.42315 32.8191 2.8463 32.3107 4.32638H38.3548Z" fill="white"/>
</svg>
